…
### Picking out variables with select()

Use `select()` function to extracts specific variables from a dataframe. You can store variables of interest extracted with `select()` in an object should you want to have a small subset of the data to work on seperately.

Here's an example. 


```r
# this will print only the age, sex and survived columns 
   titanic %>%
   select(Age,Sex,Survived)
```

```
## # A tibble: 891 x 3
##      Age    Sex Survived
##    <dbl> <fctr>    <int>
##  1    22   male        0
##  2    38 female        1
##  3    26 female        1
##  4    35 female        1
##  5    35   male        0
##  6    NA   male        0
##  7    54   male        0
##  8     2   male        0
##  9    27 female        1
## 10    14 female        1
## # ... with 881 more rows
```
…
There are various ways to use `select()` function. For instance, we could exract variables whith start or end with certain letters.


```r
# select columns which begin with letter A 
   titanic %>%
   select(starts_with("A"))
```

```
## # A tibble: 891 x 1
##      Age
##    <dbl>
##  1    22
##  2    38
##  3    26
##  4    35
##  5    35
##  6    NA
##  7    54
##  8     2
##  9    27
## 10    14
## # ... with 881 more rows
```

```r
# select columns which end with letter s
   titanic %>%
   select(ends_with("s"))
```

```
## # A tibble: 891 x 1
##    Pclass
##     <int>
##  1      3
##  2      1
##  3      3
##  4      1
##  5      3
##  6      3
##  7      1
##  8      3
##  9      3
## 10      2
## # ... with 881 more rows
```
…
### Subsetting with filter()

The function `filter()` extracts data **row_wise**. 

An example: Column (variable) **Sex** contains two categories: females and males. Let's extract all of the information (all variables) contained in the `titanic` dataset but only for females


```r
# extract all of the variables but only for females
   titanic%>%
     filter(Sex == "female")
```

```
## # A tibble: 314 x 12
##    PassengerId Survived Pclass
##          <int>    <int>  <int>
##  1           2        1      1
##  2           3        1      3
##  3           4        1      1
##  4           9        1      3
##  5          10        1      2
##  6          11        1      3
##  7          12        1      1
##  8          15        0      3
##  9          16        1      2
## 10          19        0      3
## # ... with 304 more rows, and 9 more variables: Name <fctr>, Sex <fctr>,
## #   Age <dbl>, SibSp <int>, Parch <int>, Ticket <fctr>, Fare <dbl>,
## #   Cabin <fctr>, Embarked <fctr>
```

We can also do multiple levels of filtering.


```r
# extract all of the variables but only or females aged 20 and up
   titanic%>%
    filter(Sex == "female", Age > 20)
```

```
## # A tibble: 184 x 12
##    PassengerId Survived Pclass
##          <int>    <int>  <int>
##  1           2        1      1
##  2           3        1      3
##  3           4        1      1
##  4           9        1      3
##  5          12        1      1
##  6          16        1      2
##  7          19        0      3
##  8          26        1      3
##  9          41        0      3
## 10          42        0      2
## # ... with 174 more rows, and 9 more variables: Name <fctr>, Sex <fctr>,
## #   Age <dbl>, SibSp <int>, Parch <int>, Ticket <fctr>, Fare <dbl>,
## #   Cabin <fctr>, Embarked <fctr>
```
…
So far we learnt how to extract pieces of data from the `titanic` dataset, but we still have lots of rows of data. How do we summarize it so that we can find out something useful, say the average age of people who survived the tradegy? This is where two powerfull functions come in:  `group_by` and `summarize()`.

To perform operations on the `titanic` dataset, we first need to specify what variable we want to summarize with the `group_by`function.

In the example below we I specify that the operation will be grouped by Sex for the `titanic` data. Because we have 2 categories in `Sex`, the female and male, any calculations we perform after the `groub_by` will produce one value for females and one value for males.


```r
titanic%>%
  group_by(Sex)
```

```
## # A tibble: 891 x 12
## # Groups:   Sex [2]
##    PassengerId Survived Pclass
##          <int>    <int>  <int>
##  1           1        0      3
##  2           2        1      1
##  3           3        1      3
##  4           4        1      1
##  5           5        0      3
##  6           6        0      3
##  7           7        0      1
##  8           8        0      3
##  9           9        1      3
## 10          10        1      2
## # ... with 881 more rows, and 9 more variables: Name <fctr>, Sex <fctr>,
## #   Age <dbl>, SibSp <int>, Parch <int>, Ticket <fctr>, Fare <dbl>,
## #   Cabin <fctr>, Embarked <fctr>
```
…
